%YAML 1.1
%TAG !u! tag:unity3d.com,2011:
--- !u!1045 &1
EditorBuildSettings:
  m_ObjectHideFlags: 0
  serializedVersion: 2
  m_Scenes:
  - enabled: 1
    path: Assets/Scenes/Persistent_Scene.unity
    guid: 34c39bef04ff4bc4db36cbef7d3a2b49
  - enabled: 1
    path: Assets/Scenes/MainMenu_Scene.unity
    guid: d501ea2a548161e45ab4e6ec4e21a2c4
  - enabled: 1
    path: Assets/Scenes/Game_Scene.unity
    guid: 2cda990e2423bbf4892e6590ba056729
  m_configObjects: {}
